{
  "$schema": "https://themost-framework.github.io/themost/models/2018/2/schema.json",
  "@id": "https://universis.io/schemas/EducationEventAbsenceType",
  "name": "EducationEventAbsenceType",
  "type": "lookup",
  "title": "Τύπος απουσίας από γεγονός διδασκαλίας",
  "hidden": false,
  "sealed": false,
  "abstract": false,
  "caching": "always",
  "implements": "Enumeration",
  "category": "lookup",
  "version": "0.1",
  "fields": [
    {
      "name": "id",
      "title": "Id",
      "type": "Counter",
      "nullable": false,
      "primary": true
    },
    {
      "@id": "http://schema.org/additionalType",
      "name": "additionalType",
      "type": "Text",
      "readonly": true,
      "nullable": false,
      "value": "javascript:return this.model.name;"
    },
    {
      "@id": "http://schema.org/alternateName",
      "name": "alternateName",
      "type": "Text",
      "nullable": false
    },
    {
      "@id": "http://schema.org/name",
      "name": "name",
      "type": "Text",
      "nullable": false
    }
  ],
  "privileges": [
    {
      "mask": 1,
      "type": "global",
      "account": "*"
    },
    {
      "mask": 15,
      "type": "global"
    },
    {
      "mask": 15,
      "type": "global",
      "account": "Administrators"
    }
  ],
  "constraints": [
    {
      "type": "unique",
      "description": "Alternate name must be unique across different records",
      "fields": [
        "alternateName"
      ]
    },
    {
      "type": "unique",
      "description": "Name must be unique across different records",
      "fields": [
        "name"
      ]
    }
  ],
  "seed": [
    {
      "alternateName": "justified",
      "name": "Δικαιολογημένη",
      "identifier": 1
    },
    {
      "alternateName": "unjustified",
      "name": "Αδικαιολόγητη",
      "identifier": 2
    }
  ],
  "eventListeners": [
    {
      "name": "Lookup Cache Listener",
      "type": "./listeners/lookup-cache-listener.js"
    }
  ]
}
