{
  "$schema": "https://themost-framework.github.io/themost/models/2018/2/schema.json",
  "@id": "https://universis.io/schemas/Internship",
  "name": "Internship",
  "title": "Πρακτική άσκηση",
  "hidden": false,
  "sealed": false,
  "version": "0.1",
  "source": "InternshipData",
  "view": "InternshipData",
  "fields": [
    {
      "name": "id",
      "title": "Κωδικός",
      "description": "Ο μοναδικός κωδικός της πρακτικής άσκησης",
      "type": "Integer",
      "nullable": false,
      "size": 4,
      "primary": true,
      "value": "javascript:return this.newid();",
      "size": 4
    },
    {
      "name": "name",
      "title": "Ονομασία",
      "description": "Η ονομασία της πρακτικής άσκησης",
      "type": "Text",
      "nullable": true,
      "size": 512
    },
    {
      "name": "department",
      "title": "Τμήμα",
      "description": "Το τμήμα που προσφέρει την πρακτική άσκηση.",
      "type": "Department",
      "nullable": false
    },
    {
      "name": "student",
      "title": "Φοιτητής",
      "description": "Φοιτητής",
      "type": "Student",
      "nullable": true
    },
    {
      "name": "company",
      "title": "Εταιρεία",
      "description": "Η εταιρεία-οργανισμός που προσφέρει την πρακτική άσκηση",
      "type": "Company",
      "nullable": true
    },
    {
      "name": "companyContact",
      "title": "Υπεύθυνος",
      "description": "Ο υπεύθυνος επικοινωνίας της εταιρείας-οργανισμού.",
      "type": "Text",
      "nullable": true,
      "size": 60
    },
    {
      "name": "companyContactPhone",
      "title": "Τηλέφωνο υπεύθυνου",
      "description": "Το τηλέφωνο επικοινωνίας του υπεύθυνου της εταιρείας-οργανισμού.",
      "type": "Text",
      "nullable": true,
      "size": 40
    },
    {
      "name": "internshipYear",
      "title": "Ακαδημαϊκό έτος",
      "description": "Το ακαδημαϊκό έτος διεξαγωγής της πρακτικής άσκησης.",
      "type": "AcademicYear",
      "expandable": true,
      "nullable": false
    },
    {
      "name": "internshipPeriod",
      "title": "Ακαδημαϊκή περίοδος",
      "description": "Η ακαδημαϊκή περίοδος διεξαγωγής της πρακτικής άσκησης.",
      "type": "AcademicPeriod",
      "expandable": true
    },
    {
      "name": "internshipDate",
      "title": "Ημερομηνία εγγραφής",
      "description": "Η ημερομηνία εγγραφής στην πρακτική άσκηση",
      "type": "DateTime",
      "nullable": true,
      "size": 4
    },
    {
      "name": "startDate",
      "title": "Ημερομηνία έναρξης",
      "description": "Η ημερομηνία έναρξης της πρακτικής άσκησης",
      "type": "DateTime",
      "nullable": true,
      "size": 4
    },
    {
      "name": "endDate",
      "title": "Ημερομηνία λήξης",
      "description": "Η ημερομηνία λήξης της πρακτικής άσκησης.",
      "type": "DateTime",
      "nullable": true,
      "size": 4
    },
    {
      "name": "status",
      "title": "Κατάσταση",
      "description": "Η κατάσταση της πρακτικής άσκησης.",
      "type": "InternshipStatus",
      "nullable": false,
      "mapping": {
        "parentModel": "InternshipStatus",
        "childModel": "Internship",
        "parentField": "identifier",
        "childField": "status",
        "associationType": "association"
      }
    },
    {
      "name": "dateCompleted",
      "title": "Ημερομηνία ολοκλήρωσης",
      "description": "Η ημερομηνία ολοκλήρωσης της πρακτικής άσκησης.",
      "type": "DateTime",
      "nullable": true
    },
    {
      "name": "dateModified",
      "title": "Ημερομηνία τροποποίησης",
      "description": "Ημερομηνία τροποποίησης",
      "type": "DateTime",
      "nullable": false,
      "value": "javascript:return new Date();",
      "calculation": "javascript:return this.now();"
    },
    {
      "name": "locales",
      "type": "InternshipLocale",
      "expandable": true,
      "mapping": {
        "associationType": "association",
        "cascade": "delete",
        "parentModel": "Internship",
        "parentField": "id",
        "childModel": "InternshipLocale",
        "childField": "object"
      }
    },
    {
      "name": "locale",
      "type": "InternshipLocale",
      "readonly": true,
      "editable": false,
      "many": true,
      "expandable": true,
      "multiplicity": "ZeroOrOne",
      "mapping": {
        "associationType": "association",
        "cascade": "delete",
        "parentModel": "Internship",
        "parentField": "id",
        "childModel": "InternshipLocale",
        "childField": "object",
        "options": {
          "$filter": "inLanguage eq lang()",
          "$first": true
        }
      }
    }
  ],
  "eventListeners": [
    {
      "type": "./listeners/data-localization"
    }
  ],
  "privileges": [
    {
      "mask": 15,
      "type": "global"
    },
    {
      "mask": 1,
      "type": "self",
      "filter": "student eq student()",
      "account": "Students"
    },
    {
      "mask": 15,
      "type": "global",
      "account": "Administrators"
    },
    {
      "mask": 15,
      "type": "self",
      "account": "Registrar",
      "filter": "department eq departments()"
    }
  ]
}
