{
  "$schema": "https://themost-framework.github.io/themost/models/2018/2/schema.json",
  "@id": "https://universis.io/schemas/StudentRegistrationDocument",
  "name": "StudentRegistrationDocument",
  "title": "Έγγραφο αποστολής δήλωσης",
  "hidden": false,
  "sealed": false,
  "version": "0.2",
  "source": "StudentRegistrationDocumentBase",
  "view": "StudentRegistrationDocumentData",
  "fields": [
    {
      "name": "id",
      "title": "Κωδικός",
      "description": "Ο μοναδικός κωδικός της εγγραφής.",
      "type": "Integer",
      "nullable": false,
      "primary": true,
      "value": "javascript:return this.newid();"
    },
    {
      "name": "registration",
      "title": "Student Registration",
      "description": "Student Registration",
      "type": "StudentPeriodRegistration",
      "nullable": false,
      "editable": false
    },
    {
      "name": "user",
      "title": "Χρήστης",
      "description": "Ο συνδεδεμένος χρήστης",
      "type": "User",
      "editable": false
    },
    {
      "name": "documentSubject",
      "title": "Θέμα",
      "description": "Περιγραφή του document",
      "type": "Text"
    },
    {
      "name": "originalDocument",
      "title": "Xml document",
      "description": "Xml document",
      "type": "Text"
    },
    {
      "name": "documentResults",
      "title": "Document results",
      "description": "The document results",
      "type": "Text"
    },
    {
      "name": "documentStatus",
      "title": "Document status",
      "description": "Document status",
      "type": "DocumentStatus",
      "expandable": true
    },
    {
      "name": "documentStatusReason",
      "title": "Document status reason",
      "description": "Document status reason",
      "type": "Text"
    },
    {
      "name": "checkHashKey",
      "title": "Document checksum key",
      "description": "Document checksum key",
      "type": "Text"
    },
    {
      "name": "dateCreated",
      "title": "Created date",
      "description": "Created date",
      "type": "DateTime",
      "value": "javascript:return new Date();"
    },
    {
      "name": "dateModified",
      "title": "dateModified",
      "description": "dateModified",
      "type": "DateTime",
      "nullable": false,
      "value": "javascript:return new Date();",
      "calculation": "javascript:return this.now();"
    }
  ],
  "views": [
    {
      "name": "current",
      "filter": "registration/registrationYear eq currentYear() and registration/registrationPeriod eq currentPeriod()"
    }
  ],
  "privileges": [
    {
      "mask": 15,
      "type": "global"
    },
    {
      "mask": 5,
      "type": "self",
      "filter": "user eq me()",
      "account": "Students"
    },
    {
      "mask": 3,
      "type": "global",
      "account": "Administrators"
    },
    {
      "mask": 3,
      "type": "self",
      "account": "Registrar",
      "filter": "registration/student/department eq departments()"
    }
  ]
}
