{
  "$schema": "https://themost-framework.github.io/themost/models/2018/2/schema.json",
  "@id": "https://universis.io/schemas/StudentSuspension",
  "name": "StudentSuspension",
  "title": "Αναστολή φοίτησης",
  "description": "Στοιχεία αναστολών φοίτησης",
  "hidden": false,
  "sealed": false,
  "version": "0.1",
  "source": "StudentSuspensionBase",
  "view": "StudentSuspensionData",
  "fields": [
    {
      "name": "id",
      "title": "Κωδικός",
      "description": "Ο μοναδικός κωδικός της εγγραφής",
      "nullable": false,
      "primary": true,
      "type": "Guid",
      "value": "javascript:return this.newGuid();"
    },
    {
      "@id": "http://schema.org/identifier",
      "name": "identifier",
      "title": "identifier",
      "description": "The identifier property represents any kind of identifier for any kind of Thing, such as ISBNs, GTIN codes, UUIDs etc. Schema.org provides dedicated properties for representing many of these, either as textual strings or as URL (URI) links.",
      "nullable": true
    },
    {
      "name": "student",
      "title": "Φοιτητής",
      "description": "Ο φοιτητής",
      "type": "Student",
      "nullable": false,
      "editable": false
    },
    {
      "name": "suspensionDate",
      "title": "Ημερομηνία αναστολής",
      "description": "Ημερομηνία αναστολής",
      "type": "DateTime",
      "nullable": false
    },
    {
      "name": "suspensionPeriod",
      "title": "Περίοδος αναστολής",
      "description": "Περίοδος αναστολής",
      "type": "AcademicPeriod",
      "expandable": true,
      "nullable": false
    },
    {
      "name": "suspensionYear",
      "title": "Ακαδημαϊκό έτος αναστολής",
      "description": "Ακαδημαϊκό έτος αναστολής",
      "type": "AcademicYear",
      "expandable": true,
      "nullable": false
    },
    {
      "name": "suspensionPeriods",
      "title": "Περίοδοι ανστολής",
      "description": "Περίοδοι αναστολής",
      "type": "Number",
      "nullable": false
    },
    {
      "name": "reintegrationDate",
      "title": "Ημερομηνία επανένταξης",
      "description": "Ημερομηνία επανένταξης",
      "type": "DateTime"

    },
    {
      "name": "reintegrationPeriod",
      "title": "Περίοδος επανένταξης",
      "description": "Περίοδος επανένταξης",
      "type": "AcademicPeriod",
      "expandable": true
    },
    {
      "name": "reintegrationYear",
      "title": "Ακαδημαϊκό έτος επανένταξης",
      "description": "Ακαδημαϊκό έτος επανένταξης",
      "type": "AcademicYear",
      "expandable": true
    },
    {
      "name": "reintegrated",
      "title": "Επανεντάχθηκε",
      "description": "Αν ο φοιτητής επανεντάχθηκε",
      "type": "Boolean",
      "calculation": "javascript:return this.convertStrictBoolean(this.target,'reintegrated');",
      "nullable": false
    },
    {
      "name": "reintegrationSemester",
      "title": "Εξάμηνο επανένταξης",
      "description": "Εξάμηνο επανένταξης",
      "type": "Integer",
      "nullable": true
    },
    {
      "name": "suspensionType",
      "title": "Τύπος αναστολής",
      "description": "Τύπος αναστολής",
      "type": "Text",
      "size": 60,
      "nullable": true
    },
    {
      "name": "reintegrationType",
      "title": "Τύπος επανένταξης",
      "description": "Τύπος επανένταξης",
      "type": "Text",
      "size": 60,
      "nullable": true
    },
    {
      "name": "suspensionProtocolNumber",
      "title": "Αριθμός πρωτοκόλλου αναστολής",
      "description": "Αριθμός πρωτοκόλλου αναστολής",
      "type": "Text",
      "nullable": true,
      "size": 50
    },
    {
      "name": "reintegrationProtocolNumber",
      "title": "Αριθμός πρωτοκόλλου επανένταξης",
      "description": "Αριθμός πρωτοκόλλου επανένταξης",
      "type": "Text",
      "nullable": true,
      "size": 50
    },
    {
      "name": "dateModified",
      "title": "Ημερομηνία τελευταίας τροποποίησης",
      "description": "Ημερομηνία τελευταίας τροποποίησης",
      "type": "DateTime",
      "nullable": false,
      "value": "javascript:return new Date();",
      "calculation": "javascript:return this.now();"
    }
  ],
  "privileges": [
    {
      "mask": 1,
      "type": "self",
      "filter": "student eq student()",
      "account": "Students"
    },
    {
      "mask": 15,
      "type": "global",
      "account": "Administrators"
    },
    {
      "mask": 15,
      "type": "global"
    },
    {
      "mask": 15,
      "type": "self",
      "account": "Registrar",
      "filter": "student/department eq departments()"
    }
  ],
  "eventListeners": [
    {
      "type": "@themost/data/previous-state-listener"
    },
    {
      "type": "./listeners/student-suspension-update-listener"
    }
  ]
}
