{
  "$schema": "https://themost-framework.github.io/themost/models/2018/2/schema.json",
  "@id": "https://universis.io/schemas/StudyProgram",
  "name": "StudyProgram",
  "title": "Πρόγραμμα σπουδών",
  "description": "Σύνολο μαθημάτων και κανόνων που οδηγούν σε έναν τίτλο σπουδών",
  "hidden": false,
  "sealed": false,
  "version": "0.4",
  "source": "StudyProgramBase",
  "view": "StudyProgramData",
  "fields": [
    {
      "name": "id",
      "title": "Κωδικός",
      "description": "Ο μοναδικός κωδικός του προγράμματος σπουδών",
      "type": "Integer",
      "nullable": false,
      "size": 4,
      "primary": true,
      "editable": false,
      "value": "javascript:return this.newid();"
    },
    {
      "name": "department",
      "title": "Τμήμα",
      "description": "Το τμήμα που προσφέρει το πρόγραμμα σπουδών",
      "type": "Department",
      "nullable": false,
      "editable": false
    },
    {
      "name": "studyLevel",
      "title": "Επίπεδο σπουδών",
      "description": "Κωδικός επιπέδου σπουδών",
      "type": "StudyLevel",
      "nullable": false
    },
    {
      "name": "isActive",
      "title": "Ενεργό (ΝΑΙ/ΟΧΙ)",
      "description": "Ενεργό (ΝΑΙ/ΟΧΙ)",
      "type": "Boolean",
      "nullable": false,
      "calculation": "javascript:return this.convertStrictBoolean(this.target,'isActive');",
      "value": "javascript:return 1;"
    },
    {
      "name": "name",
      "title": "Ονομασία",
      "description": "Ονομασία προγράμματος σπουδών",
      "type": "Text",
      "nullable": false,
      "size": 100
    },
    {
      "name": "abbreviation",
      "title": "Συντομογραφία",
      "description": "Συντομογραφία",
      "type": "Text",
      "nullable": false,
      "size": 20
    },
    {
      "name": "printName",
      "title": "Όνομα εκτυπώσεων",
      "description": "Ονομασία του προγράμματος για χρήση στις εκτυπώσεις (μπορεί να διαφέρει από την ονομασία)",
      "type": "Text",
      "nullable": false,
      "size": 100
    },
    {
      "name": "degreeDescription",
      "title": "Τίτλος πτυχίου",
      "description": "Ο τίτλος πτυχίου που απονέμεται κατά το πέρας του προγράμματος",
      "type": "Text",
      "nullable": true,
      "size": 150
    },
    {
      "name": "gradeScale",
      "title": "Κλίμακα βαθμολογίας",
      "description": "Η κλίμακα βαθμολογίας του βαθμού που απονέμεται από το πρόγραμμα σπουδών",
      "type": "GradeScale",
      "nullable": false,
      "size": 4
    },
    {
      "name": "decimalDigits",
      "title": "Αριθμός δεκαδικών βαθμού",
      "description": "Ο αριθμός των δεκαδικών ψηφίων του βαθμού πτυχίου",
      "type": "Integer",
      "nullable": false,
      "many": false,
      "value": "javascript:return 2;"
    },
    {
      "name": "hasFees",
      "title": "Δίδακτρα",
      "description": "Αν το πρόγραμμα έχει δίδακτρα (ΝΑΙ/ΟΧΙ)",
      "type": "Boolean",
      "calculation": "javascript:return this.convertStrictBoolean(this.target,'hasFees');",
      "nullable": false,
      "value": "javascript:return 0;"
    },
    {
      "name": "semesters",
      "title": "Αριθμός εξαμήνων",
      "description": "Ο τυπικός αριθμός εξαμήνων του προγράμματος.",
      "type": "Integer",
      "nullable": false
    },
    {
      "name": "specialtySelectionSemester",
      "title": "Εξάμηνο επιλογής κατεύθυνσης",
      "description": "Το ελάχιστο εξάμηνο του φοιτητή προκειμένου να επιλέξει κατεύθυνση",
      "type": "Integer",
      "nullable": false,
      "value": "javascript:return 0;"
    },
    {
      "name": "useCurrentCourseAttributes",
      "title": "Ενημέρωση ιδιοτήτων μαθήματος (ΝΑΙ/ΟΧΙ)",
      "description": "Ενημέρωση ιδιοτήτων μαθήματος από τα στοιχεία του προγράμματος σπουδών (ΝΑΙ/ΟΧΙ)",
      "type": "Boolean",
      "nullable": false,
      "many": false,
      "calculation": "javascript:return this.convertStrictBoolean(this.target,'useCurrentCourseAttributes');",
      "value": "javascript:return 0;"
    },
    {
      "name": "maxNumberOfRemarking",
      "title": "Μέγιστος αριθμός αναβαθμολογήσεων",
      "description": "Ο μέγιστος αριθμός των αναβαθμολογήσεων που επιτρέπεται στο πρόγραμμα σπουδών",
      "type": "Integer",
      "value": "javascript:return 4;"
    },
    {
      "name": "info",
      "title": "Επιπλέον στοιχεία",
      "type": "StudyProgramExtension",
      "nested": true,
      "many": true,
      "mapping": {
        "parentModel": "StudyProgram",
        "childModel": "StudyProgramExtension",
        "parentField": "id",
        "childField": "studyProgram",
        "cascade": "delete",
        "associationType": "association"
      }
    },
    {
      "name": "specialties",
      "title": "Κατευθύνσεις",
      "description": "Το σύνολο των κατευθύνσεων του προγράμματος σπουδών",
      "type": "StudyProgramSpecialty",
      "many": true,
      "mapping": {
        "parentModel": "StudyProgram",
        "childModel": "StudyProgramSpecialty",
        "parentField": "id",
        "childField": "studyProgram",
        "cascade": "delete",
        "associationType": "association"
      }
    },
    {
      "name": "groups",
      "title": "Ομάδες",
      "description": "Το σύνολο των ομάδων του προγράμματος σπουδών",
      "type": "ProgramGroup",
      "many": true,
      "mapping": {
        "parentModel": "StudyProgram",
        "childModel": "ProgramGroup",
        "parentField": "id",
        "childField": "program",
        "cascade": "delete",
        "associationType": "association"
      }
    },
    {
      "name": "calculationRules",
      "title": "Κανόνες υπολογισμού πτυχίου",
      "description": "Το σύνολο των κανόνων υπολογισμού πτυχίου του προγράμματος σπουδών",
      "type": "CalculationRule",
      "many": true,
      "mapping": {
        "parentModel": "StudyProgram",
        "childModel": "CalculationRule",
        "parentField": "id",
        "childField": "studyProgram",
        "cascade": "delete",
        "associationType": "association"
      }
    }
  ],
  "eventListeners": [
    {
      "type": "./listeners/study-program-specialization-listener"
    },
    {
      "type": "./listeners/before-remove-study-program-listener"
    }
  ],
  "privileges": [
    {
      "mask": 1,
      "type": "global",
      "account": "*"
    },
    {
      "mask": 15,
      "type": "global"
    },
    {
      "mask": 15,
      "type": "global",
      "account": "Administrators"
    },
    {
      "mask": 6,
      "type": "self",
      "account": "Registrar",
      "filter": "department eq departments()"
    }
  ]
}
